Dry Prac 1 — Data analysis in R – BIOL340 - Autumn 2026
…
  summarise(
    # Calculate the average signal for each group/treatment combination
    # mean() finds the average value
    # na.rm = TRUE tells R to ignore missing values (NA) if they exist
    mean_signal = mean(signal, na.rm = TRUE))

cam_summary

# A tibble: 174 × 3
# Groups:   Group [29]
   Group     condition                        mean_signal
   <chr>     <chr>                                  <dbl>
 1 ""        Diseased                                NaN 
 2 ""        Healthy                                 NaN 
 3 ""        Media / blank                           NaN 
 4 ""        Non-viable cells                        NaN 
 5 ""        Treated cells - 10 uM Respiranox        NaN 
 6 ""        Treated cells - 20 uM Respiranox        NaN 
 7 "G1 & G6" Diseased                              15315.
 8 "G1 & G6" Healthy                               25263.
 9 "G1 & G6" Media / blank                          7531.
10 "G1 & G6" Non-viable cells                       7691 
# ℹ 164 more rows
…
  # Create a new column called corrected_signal
  # This subtracts the background fluorescence
  # from the treatment signal
  mutate(
    corrected_signal = mean_signal - blank_mean
  )

# Display the corrected dataset
cam_corrected

# A tibble: 145 × 5
# Groups:   Group [29]
   Group     condition                   mean_signal blank_mean corrected_signal
   <chr>     <chr>                             <dbl>      <dbl>            <dbl>
 1 ""        Diseased                           NaN        NaN              NaN 
 2 ""        Healthy                            NaN        NaN              NaN 
 3 ""        Non-viable cells                   NaN        NaN              NaN 
 4 ""        Treated cells - 10 uM Resp…        NaN        NaN              NaN 
 5 ""        Treated cells - 20 uM Resp…        NaN        NaN              NaN 
 6 "G1 & G6" Diseased                         15315.      7531.            7784 
 7 "G1 & G6" Healthy                          25263.      7531.           17733.
 8 "G1 & G6" Non-viable cells                  7691       7531.             160.
 9 "G1 & G6" Treated cells - 10 uM Resp…      22218.      7531.           14687 
10 "G1 & G6" Treated cells - 20 uM Resp…      12985.      7531.            5454 
# ℹ 135 more rows
…
  mutate(
    # Create a new column called relative_viability
    # This compares each treatment signal to the healthy control signal
    # from the same group and expresses it as a percentage

    relative_viability =
      corrected_signal /
      corrected_signal[condition == "Healthy"] * 100
  )

# View the resulting dataset
viability_cam

# A tibble: 145 × 6
# Groups:   Group [29]
   Group    condition mean_signal blank_mean corrected_signal relative_viability
   <chr>    <chr>           <dbl>      <dbl>            <dbl>              <dbl>
 1 ""       Diseased         NaN        NaN              NaN             NaN    
 2 ""       Healthy          NaN        NaN              NaN             NaN    
 3 ""       Non-viab…        NaN        NaN              NaN             NaN    
 4 ""       Treated …        NaN        NaN              NaN             NaN    
 5 ""       Treated …        NaN        NaN              NaN             NaN    
 6 "G1 & G… Diseased       15315.      7531.            7784              43.9  
 7 "G1 & G… Healthy        25263.      7531.           17733.            100    
 8 "G1 & G… Non-viab…       7691       7531.             160.              0.904
 9 "G1 & G… Treated …      22218.      7531.           14687              82.8  
10 "G1 & G… Treated …      12985.      7531.            5454              30.8  
# ℹ 135 more rows
…
